<mxfile host="app.diagrams.net" modified="2023-08-16T05:14:44.238Z" agent="Mozilla/5.0 (X11; Linux x86_64) AppleWebKit/537.36 (KHTML, like Gecko) Chrome/115.0.0.0 Safari/537.36" etag="85rg1TUm4bkgFUsQeUXf" version="21.6.8" type="gitlab">
  <diagram name="Page-1" id="XFZO2BU5wYzBZtD024oo">
    <mxGraphModel dx="1110" dy="412" grid="1" gridSize="10" guides="1" tooltips="1" connect="1" arrows="1" fold="1" page="1" pageScale="1" pageWidth="850" pageHeight="1100" math="0" shadow="0">
      <root>
        <mxCell id="0" />
        <mxCell id="1" parent="0" />
        <mxCell id="yb7w1WpF0QR7z6bLEIcH-5" value="" style="edgeStyle=orthogonalEdgeStyle;rounded=0;orthogonalLoop=1;jettySize=auto;html=1;dashed=1;endArrow=none;endFill=0;" edge="1" parent="1" source="yb7w1WpF0QR7z6bLEIcH-2" target="yb7w1WpF0QR7z6bLEIcH-4">
          <mxGeometry relative="1" as="geometry" />
        </mxCell>
        <mxCell id="yb7w1WpF0QR7z6bLEIcH-2" value="Admin" style="shape=umlActor;html=1;verticalLabelPosition=bottom;verticalAlign=top;align=center;" vertex="1" parent="1">
          <mxGeometry x="120" y="40" width="30" height="60" as="geometry" />
        </mxCell>
        <mxCell id="yb7w1WpF0QR7z6bLEIcH-4" value="Admin" style="shape=umlActor;html=1;verticalLabelPosition=bottom;verticalAlign=top;align=center;" vertex="1" parent="1">
          <mxGeometry x="120" y="477" width="30" height="60" as="geometry" />
        </mxCell>
        <mxCell id="yb7w1WpF0QR7z6bLEIcH-12" value="" style="shape=umlBoundary;whiteSpace=wrap;html=1;" vertex="1" parent="1">
          <mxGeometry x="240" y="477" width="75" height="60" as="geometry" />
        </mxCell>
        <mxCell id="yb7w1WpF0QR7z6bLEIcH-13" value="" style="edgeStyle=orthogonalEdgeStyle;rounded=0;orthogonalLoop=1;jettySize=auto;html=1;dashed=1;endArrow=none;endFill=0;" edge="1" parent="1" source="yb7w1WpF0QR7z6bLEIcH-7" target="yb7w1WpF0QR7z6bLEIcH-12">
          <mxGeometry relative="1" as="geometry">
            <mxPoint x="238" y="120" as="sourcePoint" />
          </mxGeometry>
        </mxCell>
        <mxCell id="yb7w1WpF0QR7z6bLEIcH-6" value="" style="shape=umlBoundary;whiteSpace=wrap;html=1;" vertex="1" parent="1">
          <mxGeometry x="240" y="40" width="75" height="60" as="geometry" />
        </mxCell>
        <mxCell id="yb7w1WpF0QR7z6bLEIcH-7" value="Student Management System" style="text;html=1;align=left;verticalAlign=middle;resizable=0;points=[];autosize=1;strokeColor=none;fillColor=none;" vertex="1" parent="1">
          <mxGeometry x="187.5" y="100" width="180" height="30" as="geometry" />
        </mxCell>
        <mxCell id="yb7w1WpF0QR7z6bLEIcH-14" value="Student Management System" style="text;html=1;align=left;verticalAlign=middle;resizable=0;points=[];autosize=1;strokeColor=none;fillColor=none;" vertex="1" parent="1">
          <mxGeometry x="187.5" y="537" width="180" height="30" as="geometry" />
        </mxCell>
        <mxCell id="yb7w1WpF0QR7z6bLEIcH-20" value="" style="edgeStyle=elbowEdgeStyle;rounded=0;orthogonalLoop=1;jettySize=auto;html=1;elbow=vertical;curved=0;dashed=1;endArrow=none;endFill=0;entryX=0.5;entryY=0;entryDx=0;entryDy=0;" edge="1" parent="1" source="yb7w1WpF0QR7z6bLEIcH-16" target="yb7w1WpF0QR7z6bLEIcH-23">
          <mxGeometry relative="1" as="geometry">
            <mxPoint x="457.5" y="570" as="targetPoint" />
          </mxGeometry>
        </mxCell>
        <mxCell id="yb7w1WpF0QR7z6bLEIcH-16" value="Admin UI" style="shape=umlLifeline;perimeter=lifelinePerimeter;whiteSpace=wrap;html=1;container=1;dropTarget=0;collapsible=0;recursiveResize=0;outlineConnect=0;portConstraint=eastwest;newEdgeStyle={&quot;edgeStyle&quot;:&quot;elbowEdgeStyle&quot;,&quot;elbow&quot;:&quot;vertical&quot;,&quot;curved&quot;:0,&quot;rounded&quot;:0};" vertex="1" parent="1">
          <mxGeometry x="400" y="60" width="100" height="460" as="geometry" />
        </mxCell>
        <mxCell id="yb7w1WpF0QR7z6bLEIcH-23" value="Admin UI" style="html=1;whiteSpace=wrap;" vertex="1" parent="1">
          <mxGeometry x="400" y="497" width="100" height="40" as="geometry" />
        </mxCell>
        <mxCell id="yb7w1WpF0QR7z6bLEIcH-26" style="edgeStyle=orthogonalEdgeStyle;rounded=0;orthogonalLoop=1;jettySize=auto;html=1;entryX=0.5;entryY=0;entryDx=0;entryDy=0;dashed=1;endArrow=none;endFill=0;" edge="1" parent="1" source="yb7w1WpF0QR7z6bLEIcH-24" target="yb7w1WpF0QR7z6bLEIcH-25">
          <mxGeometry relative="1" as="geometry" />
        </mxCell>
        <mxCell id="yb7w1WpF0QR7z6bLEIcH-24" value="User Manager" style="html=1;whiteSpace=wrap;" vertex="1" parent="1">
          <mxGeometry x="560" y="60" width="100" height="40" as="geometry" />
        </mxCell>
        <mxCell id="yb7w1WpF0QR7z6bLEIcH-25" value="User Manager" style="html=1;whiteSpace=wrap;" vertex="1" parent="1">
          <mxGeometry x="560" y="497" width="100" height="40" as="geometry" />
        </mxCell>
        <mxCell id="yb7w1WpF0QR7z6bLEIcH-27" style="edgeStyle=orthogonalEdgeStyle;rounded=0;orthogonalLoop=1;jettySize=auto;html=1;entryX=0.5;entryY=0;entryDx=0;entryDy=0;dashed=1;endArrow=none;endFill=0;" edge="1" source="yb7w1WpF0QR7z6bLEIcH-28" target="yb7w1WpF0QR7z6bLEIcH-29" parent="1">
          <mxGeometry relative="1" as="geometry" />
        </mxCell>
        <mxCell id="yb7w1WpF0QR7z6bLEIcH-28" value="Daabase" style="html=1;whiteSpace=wrap;" vertex="1" parent="1">
          <mxGeometry x="720" y="60" width="100" height="40" as="geometry" />
        </mxCell>
        <mxCell id="yb7w1WpF0QR7z6bLEIcH-29" value="Database" style="html=1;whiteSpace=wrap;" vertex="1" parent="1">
          <mxGeometry x="720" y="497" width="100" height="40" as="geometry" />
        </mxCell>
        <mxCell id="yb7w1WpF0QR7z6bLEIcH-30" value="" style="endArrow=classic;html=1;rounded=0;" edge="1" parent="1">
          <mxGeometry width="50" height="50" relative="1" as="geometry">
            <mxPoint x="140" y="160" as="sourcePoint" />
            <mxPoint x="450" y="160" as="targetPoint" />
          </mxGeometry>
        </mxCell>
        <mxCell id="yb7w1WpF0QR7z6bLEIcH-31" value="Open Admin UI" style="text;html=1;align=center;verticalAlign=middle;resizable=0;points=[];autosize=1;strokeColor=none;fillColor=none;" vertex="1" parent="1">
          <mxGeometry x="150" y="138" width="100" height="30" as="geometry" />
        </mxCell>
        <mxCell id="yb7w1WpF0QR7z6bLEIcH-32" value="" style="endArrow=classic;html=1;rounded=0;" edge="1" parent="1" target="yb7w1WpF0QR7z6bLEIcH-16">
          <mxGeometry width="50" height="50" relative="1" as="geometry">
            <mxPoint x="450" y="190" as="sourcePoint" />
            <mxPoint x="580" y="250" as="targetPoint" />
            <Array as="points">
              <mxPoint x="520" y="190" />
              <mxPoint x="520" y="200" />
              <mxPoint x="520" y="210" />
              <mxPoint x="510" y="210" />
            </Array>
          </mxGeometry>
        </mxCell>
        <mxCell id="yb7w1WpF0QR7z6bLEIcH-33" value="Display Dashboard" style="text;html=1;align=center;verticalAlign=middle;resizable=0;points=[];autosize=1;strokeColor=none;fillColor=none;" vertex="1" parent="1">
          <mxGeometry x="450" y="160" width="120" height="30" as="geometry" />
        </mxCell>
        <mxCell id="yb7w1WpF0QR7z6bLEIcH-34" value="" style="endArrow=classic;html=1;rounded=0;" edge="1" parent="1">
          <mxGeometry width="50" height="50" relative="1" as="geometry">
            <mxPoint x="450" y="240" as="sourcePoint" />
            <mxPoint x="610" y="240" as="targetPoint" />
          </mxGeometry>
        </mxCell>
        <mxCell id="yb7w1WpF0QR7z6bLEIcH-35" value="Create Student User" style="text;html=1;align=center;verticalAlign=middle;resizable=0;points=[];autosize=1;strokeColor=none;fillColor=none;" vertex="1" parent="1">
          <mxGeometry x="460" y="220" width="130" height="30" as="geometry" />
        </mxCell>
        <mxCell id="yb7w1WpF0QR7z6bLEIcH-36" value="Validate User Data" style="text;html=1;align=center;verticalAlign=middle;resizable=0;points=[];autosize=1;strokeColor=none;fillColor=none;" vertex="1" parent="1">
          <mxGeometry x="610" y="250" width="120" height="30" as="geometry" />
        </mxCell>
        <mxCell id="yb7w1WpF0QR7z6bLEIcH-37" value="" style="endArrow=classic;html=1;rounded=0;" edge="1" parent="1">
          <mxGeometry width="50" height="50" relative="1" as="geometry">
            <mxPoint x="610" y="280" as="sourcePoint" />
            <mxPoint x="610" y="300" as="targetPoint" />
            <Array as="points">
              <mxPoint x="680" y="280" />
              <mxPoint x="680" y="290" />
              <mxPoint x="680" y="300" />
              <mxPoint x="670" y="300" />
            </Array>
          </mxGeometry>
        </mxCell>
        <mxCell id="yb7w1WpF0QR7z6bLEIcH-38" value="" style="endArrow=classic;html=1;rounded=0;" edge="1" parent="1">
          <mxGeometry width="50" height="50" relative="1" as="geometry">
            <mxPoint x="610" y="340" as="sourcePoint" />
            <mxPoint x="770" y="340" as="targetPoint" />
          </mxGeometry>
        </mxCell>
        <mxCell id="yb7w1WpF0QR7z6bLEIcH-39" value="Add User to Database" style="text;html=1;align=center;verticalAlign=middle;resizable=0;points=[];autosize=1;strokeColor=none;fillColor=none;" vertex="1" parent="1">
          <mxGeometry x="615" y="320" width="140" height="30" as="geometry" />
        </mxCell>
        <mxCell id="yb7w1WpF0QR7z6bLEIcH-40" value="" style="endArrow=none;html=1;rounded=0;dashed=1;endFill=0;startArrow=classic;startFill=1;" edge="1" parent="1">
          <mxGeometry width="50" height="50" relative="1" as="geometry">
            <mxPoint x="610" y="380" as="sourcePoint" />
            <mxPoint x="770" y="380" as="targetPoint" />
          </mxGeometry>
        </mxCell>
        <mxCell id="yb7w1WpF0QR7z6bLEIcH-41" value="Confirmation" style="text;html=1;align=center;verticalAlign=middle;resizable=0;points=[];autosize=1;strokeColor=none;fillColor=none;" vertex="1" parent="1">
          <mxGeometry x="620" y="360" width="90" height="30" as="geometry" />
        </mxCell>
        <mxCell id="yb7w1WpF0QR7z6bLEIcH-42" value="User Created" style="text;html=1;align=center;verticalAlign=middle;resizable=0;points=[];autosize=1;strokeColor=none;fillColor=none;" vertex="1" parent="1">
          <mxGeometry x="460" y="400" width="90" height="30" as="geometry" />
        </mxCell>
        <mxCell id="yb7w1WpF0QR7z6bLEIcH-43" value="" style="endArrow=none;html=1;rounded=0;dashed=1;endFill=0;startArrow=classic;startFill=1;" edge="1" parent="1">
          <mxGeometry width="50" height="50" relative="1" as="geometry">
            <mxPoint x="450" y="420" as="sourcePoint" />
            <mxPoint x="610" y="420" as="targetPoint" />
          </mxGeometry>
        </mxCell>
        <mxCell id="yb7w1WpF0QR7z6bLEIcH-44" value="" style="endArrow=none;html=1;rounded=0;dashed=1;endFill=0;startArrow=classic;startFill=1;" edge="1" parent="1">
          <mxGeometry width="50" height="50" relative="1" as="geometry">
            <mxPoint x="138" y="460" as="sourcePoint" />
            <mxPoint x="448" y="460" as="targetPoint" />
          </mxGeometry>
        </mxCell>
        <mxCell id="yb7w1WpF0QR7z6bLEIcH-45" value="User Created" style="text;html=1;align=center;verticalAlign=middle;resizable=0;points=[];autosize=1;strokeColor=none;fillColor=none;" vertex="1" parent="1">
          <mxGeometry x="150" y="440" width="90" height="30" as="geometry" />
        </mxCell>
      </root>
    </mxGraphModel>
  </diagram>
</mxfile>
